…
### Tibbles, the "new" data.frame

Tidyverse packages are based on the manipulation of a new type of variable, the `"tibble"`.
It's a variant of `data.frame`. Don't worry, you can manipulate `tibble` the same way as
`data.frame` that you learn previously (brackets `[ ]`, `$`, and with basics functions such as : `colnames`, `rownames`, `str`, *etc*...). 

How it looks ? 

```
# an example of a tibble from tidyverse
starwars
```

```
## # A tibble: 87 × 14
##    name   height  mass hair_color skin_color eye_color birth_year sex   gender homeworld species films
##    <chr>   <int> <dbl> <chr>      <chr>      <chr>          <dbl> <chr> <chr>  <chr>     <chr>   <lis>
##  1 Luke …    172    77 blond      fair       blue            19   male  mascu… Tatooine  Human   <chr>
##  2 C-3PO     167    75 NA         gold       yellow         112   none  mascu… Tatooine  Droid   <chr>
##  3 R2-D2      96    32 NA         white, bl… red             33   none  mascu… Naboo     Droid   <chr>
##  4 Darth…    202   136 none       white      yellow          41.9 male  mascu… Tatooine  Human   <chr>
##  5 Leia …    150    49 brown      light      brown           19   fema… femin… Alderaan  Human   <chr>
##  6 Owen …    178   120 brown, gr… light      blue            52   male  mascu… Tatooine  Human   <chr>
##  7 Beru …    165    75 brown      light      blue            47   fema… femin… Tatooine  Human   <chr>
##  8 R5-D4      97    32 NA         white, red red             NA   none  mascu… Tatooine  Droid   <chr>
##  9 Biggs…    183    84 black      light      brown           24   male  mascu… Tatooine  Human   <chr>
## 10 Obi-W…    182    77 auburn, w… fair       blue-gray       57   male  mascu… Stewjon   Human   <chr>
## # ℹ 77 more rows
## # ℹ 2 more variables: vehicles <list>, starships <list>
## # ℹ Use `print(n = ...)` to see more rows
```
…
