Manipulating data with tidyverse - STARTbio
…
For an introduction of the tidyverse, please go read the 
introduction of R4DS.

Tibbles, the "new" data.frame¶

Tidyverse packages are based on the manipulation of a new type of variable, the "tibble".
It's a variant of data.frame. Don't worry, you can manipulate tibble the same way as
data.frame that you learn previously (brackets [ ], $, and with basics functions such 
as : colnames, rownames, str, etc.). 

What does it look like? 

# An example of a tibble from tidyverse
starwars
## # A tibble: 87 × 14
##    name   height  mass hair_color skin_color eye_color birth_year sex   gender homeworld species films
##    <chr>   <int> <dbl> <chr>      <chr>      <chr>          <dbl> <chr> <chr>  <chr>     <chr>   <lis>
##  1 Luke …    172    77 blond      fair       blue            19   male  mascu… Tatooine  Human   <chr>
##  2 C-3PO     167    75 NA         gold       yellow         112   none  mascu… Tatooine  Droid   <chr>
##  3 R2-D2      96    32 NA         white, bl… red             33   none  mascu… Naboo     Droid   <chr>
##  4 Darth…    202   136 none       white      yellow          41.9 male  mascu… Tatooine  Human   <chr>
##  5 Leia …    150    49 brown      light      brown           19   fema… femin… Alderaan  Human   <chr>
##  6 Owen …    178   120 brown, gr… light      blue            52   male  mascu… Tatooine  Human   <chr>
##  7 Beru …    165    75 brown      light      blue            47   fema… femin… Tatooine  Human   <chr>
##  8 R5-D4      97    32 NA         white, red red             NA   none  mascu… Tatooine  Droid   <chr>
##  9 Biggs…    183    84 black      light      brown           24   male  mascu… Tatooine  Human   <chr>
## 10 Obi-W…    182    77 auburn, w… fair       blue-gray       57   male  mascu… Stewjon   Human   <chr>
## # ℹ 77 more rows
## # ℹ 2 more variables: vehicles <list>, starships <list>
## # ℹ Use `print(n = ...)` to see more rows
…
This format is often used when operating Excel tables, but it also has some inconveniences.
What are the numbers stands for? Potatoes? Okay, I may overstate it, but for complicated
tables it may be an issue and it makes it harder to manipulate untidy data. For example, if 
you need to visualize the number of cells for each sample but also for each cell type, it's 
not possible to do so easily in R. Instead we are going to favor this architecture: 

# Tidy data
tidy_df <- untidy_df |> 
  pivot_longer(cols = contains("cells"),       # Tidy all columns that starts with "Sample"
               names_to = "Cell_types",        # Resume to a new column called "Sample"
               values_to = "Nbr_of_cells")     # Store the numeric value to a column called 
tidy_df
# A tibble: 21 × 3
##    Sample  Cell_types        Nbr_of_cells
##    <chr>   <chr>                    <dbl>
##  1 Sample1 T_cells                     72
##  2 Sample1 NK_cells                   118
##  3 Sample1 Endothelial_cells          212
##  4 Sample2 T_cells                      0
##  5 Sample2 NK_cells                    24
##  6 Sample2 Endothelial_cells           49
##  7 Sample3 T_cells                     12
##  8 Sample3 NK_cells                     2
##  9 Sample3 Endothelial_cells            0
## 10 Sample4 T_cells                     11
## # ℹ 11 more rows
## # ℹ Use `print(n = ...)` to see more rows
…
